<svg width="14" height="12" viewBox="0 0 14 12" fill="none" xmlns="http://www.w3.org/2000/svg">
<path fill-rule="evenodd" clip-rule="evenodd" d="M10.0168 3.16688e-05L3.97077 0C1.85775 0 0.333313 1.70767 0.333313 3.90598V8.09402C0.333313 10.2923 1.85775 12 3.97077 12H10.0112C11.0261 11.9886 11.9868 11.5614 12.675 10.8177C13.3633 10.074 13.7191 9.07886 13.6595 8.06396L13.6604 3.90598C13.7191 2.92114 13.3633 1.92597 12.675 1.1823C11.9868 0.438624 11.0261 0.0113672 10.0168 3.16688e-05ZM3.97077 1.01895L10.0056 1.01892C10.7382 1.02715 11.4355 1.33728 11.935 1.87708C12.4346 2.41689 12.6929 3.13925 12.6496 3.87592L12.6488 8.09402C12.6929 8.86075 12.4346 9.58311 11.935 10.1229C11.4355 10.6627 10.7382 10.9729 10.0056 10.9811L3.97077 10.981C2.44184 10.981 1.34494 9.7523 1.34494 8.09402V3.90598C1.34494 2.2477 2.44184 1.01895 3.97077 1.01895ZM11.016 3.75891C10.8414 3.53924 10.5231 3.5037 10.305 3.67953L7.57217 5.88283L7.49384 5.93788C7.17162 6.1397 6.7485 6.12106 6.43986 5.87875L3.68702 3.67821L3.62507 3.63574C3.41155 3.51152 3.13426 3.56021 2.97639 3.76057C2.80273 3.98097 2.83934 4.30144 3.05816 4.47636L5.81447 6.67965L5.92201 6.75836C6.61537 7.23059 7.53421 7.20449 8.19921 6.68241L10.9372 4.47503L10.9921 4.42367C11.16 4.24174 11.1747 3.95861 11.016 3.75891Z" fill="#2C6EEF"/>
</svg>
