<svg width="21" height="20" viewBox="0 0 21 20" fill="none" xmlns="http://www.w3.org/2000/svg">
<rect x="1.5" y="1" width="18" height="18" rx="9" fill="#2C6EEF"/>
<path d="M15 10C15 12.4853 12.9853 14.5 10.5 14.5C8.01472 14.5 6 12.4853 6 10C6 7.51472 8.01472 5.5 10.5 5.5C12.9853 5.5 15 7.51472 15 10Z" fill="white"/>
<rect x="1.5" y="1" width="18" height="18" rx="9" stroke="#2C6EEF" stroke-width="1.5"/>
</svg>
