<svg width="46" height="84" viewBox="0 0 46 84"  xmlns="http://www.w3.org/2000/svg">
<path d="M29.2435 13.4817C32.11 13.3959 34.9469 14.0857 37.4544 15.4788C39.9792 16.8814 42.075 18.9443 43.5175 21.4466C44.437 23.0415 43.8894 25.0798 42.2945 25.9992C40.6996 26.9186 38.6613 26.3711 37.7418 24.7762C36.9032 23.3213 35.6847 22.122 34.2168 21.3065C32.7488 20.491 31.0868 20.09 29.4085 20.1465C29.3711 20.1478 29.3337 20.1484 29.2964 20.1484H16.7038C14.2481 20.1484 11.8929 21.1239 10.1565 22.8604C8.42003 24.5968 7.4445 26.952 7.4445 29.4077C7.4445 31.8634 8.42003 34.2185 10.1565 35.955C11.8929 37.6914 14.2481 38.6669 16.7038 38.6669H29.2964C33.5202 38.6669 37.571 40.3448 40.5577 43.3315C43.5444 46.3182 45.2223 50.369 45.2223 54.5928C45.2223 58.8167 43.5444 62.8675 40.5577 65.8542C37.571 68.8409 33.5202 70.5188 29.2964 70.5188H16.7565C13.8901 70.6046 11.0532 69.9148 8.54573 68.5217C6.02092 67.1191 3.92509 65.0562 2.48258 62.5539C1.56315 60.959 2.11073 58.9207 3.70564 58.0013C5.30055 57.0819 7.33883 57.6295 8.25826 59.2244C9.09693 60.6792 10.3154 61.8785 11.7833 62.694C13.2513 63.5095 14.9133 63.9105 16.5916 63.854C16.629 63.8527 16.6664 63.8521 16.7038 63.8521H29.2964C31.7521 63.8521 34.1072 62.8766 35.8436 61.1401C37.5801 59.4037 38.5556 57.0486 38.5556 54.5928C38.5556 52.1371 37.5801 49.782 35.8436 48.0456C34.1072 46.3091 31.7521 45.3336 29.2964 45.3336H16.7038C12.4799 45.3336 8.42912 43.6557 5.44243 40.669C2.45574 37.6823 0.777832 33.6315 0.777832 29.4077C0.777832 25.1838 2.45574 21.133 5.44243 18.1463C8.42912 15.1597 12.4799 13.4817 16.7038 13.4817H29.2435Z" />
<path d="M22.9998 0.888916C24.8408 0.888916 26.3332 2.3813 26.3332 4.22225V16.8148C26.3332 18.6558 24.8408 20.1482 22.9998 20.1482C21.1589 20.1482 19.6665 18.6558 19.6665 16.8148V4.22225C19.6665 2.3813 21.1589 0.888916 22.9998 0.888916ZM22.9998 63.8519C24.8408 63.8519 26.3332 65.3443 26.3332 67.1852V79.7778C26.3332 81.6188 24.8408 83.1111 22.9998 83.1111C21.1589 83.1111 19.6665 81.6188 19.6665 79.7778V67.1852C19.6665 65.3443 21.1589 63.8519 22.9998 63.8519Z" />
</svg>
