<svg width="24" height="24" viewBox="0 0 24 24" xmlns="http://www.w3.org/2000/svg">
<path d="M12 2.16215C15.2041 2.16215 15.5837 2.17439 16.849 2.23212C18.019 2.28547 18.6544 2.48096 19.0773 2.6453C19.6374 2.86299 20.0371 3.12302 20.457 3.54291C20.877 3.96286 21.137 4.3626 21.3547 4.92273C21.519 5.34557 21.7145 5.98096 21.7679 7.15095C21.8256 8.41629 21.8379 8.79584 21.8379 11.9999C21.8379 15.2041 21.8256 15.5836 21.7679 16.849C21.7145 18.019 21.519 18.6543 21.3547 19.0772C21.137 19.6373 20.877 20.0371 20.4571 20.457C20.0371 20.8769 19.6374 21.1369 19.0773 21.3546C18.6544 21.519 18.019 21.7144 16.849 21.7678C15.5839 21.8255 15.2044 21.8378 12 21.8378C8.79565 21.8378 8.41619 21.8255 7.15099 21.7678C5.981 21.7144 5.34561 21.519 4.92276 21.3546C4.36263 21.1369 3.96288 20.8769 3.54299 20.457C3.1231 20.0371 2.86301 19.6373 2.64533 19.0772C2.48099 18.6543 2.2855 18.019 2.23215 16.849C2.17442 15.5836 2.16217 15.2041 2.16217 11.9999C2.16217 8.79584 2.17442 8.41629 2.23215 7.15095C2.2855 5.98096 2.48099 5.34557 2.64533 4.92273C2.86301 4.3626 3.12305 3.96286 3.54299 3.54296C3.96288 3.12302 4.36263 2.86299 4.92276 2.6453C5.34561 2.48096 5.981 2.28547 7.15099 2.23212C8.41634 2.17439 8.79589 2.16215 12 2.16215ZM12 0C8.74101 0 8.33236 0.0138138 7.05243 0.072213C5.77517 0.130469 4.90285 0.333342 4.13956 0.629958C3.35045 0.936626 2.68124 1.34694 2.01408 2.01406C1.34696 2.68122 0.936644 3.35043 0.630023 4.13953C0.333358 4.90282 0.130485 5.77514 0.0722285 7.05239C0.0138291 8.33231 1.52588e-05 8.74096 1.52588e-05 11.9999C1.52588e-05 15.259 0.0138291 15.6676 0.0722285 16.9475C0.130485 18.2248 0.333358 19.0971 0.630023 19.8604C0.936644 20.6495 1.34696 21.3187 2.01408 21.9859C2.68124 22.653 3.35045 23.0633 4.13956 23.3699C4.90285 23.6666 5.77517 23.8694 7.05243 23.9277C8.33236 23.9861 8.74101 23.9999 12 23.9999C15.259 23.9999 15.6677 23.9861 16.9476 23.9277C18.2249 23.8694 19.0972 23.6666 19.8605 23.3699C20.6496 23.0633 21.3188 22.653 21.986 21.9859C22.6531 21.3187 23.0634 20.6495 23.3701 19.8604C23.6667 19.0971 23.8695 18.2248 23.9278 16.9475C23.9862 15.6676 24 15.259 24 11.9999C24 8.74096 23.9862 8.33231 23.9278 7.05239C23.8695 5.77514 23.6667 4.90282 23.3701 4.13953C23.0634 3.35043 22.6531 2.68122 21.986 2.01406C21.3188 1.34694 20.6496 0.936626 19.8605 0.629958C19.0972 0.333342 18.2249 0.130469 16.9476 0.072213C15.6677 0.0138138 15.259 0 12 0Z"/>
<path d="M12.0059 5.84375C8.60262 5.84375 5.84375 8.60261 5.84375 12.0059C5.84375 15.4092 8.60262 18.168 12.0059 18.168C15.4092 18.168 18.1681 15.4092 18.1681 12.0059C18.1681 8.60261 15.4092 5.84375 12.0059 5.84375ZM12.0059 16.0059C9.79676 16.0059 8.00591 14.215 8.00591 12.0059C8.00591 9.79675 9.79676 8.0059 12.0059 8.0059C14.2151 8.0059 16.0059 9.79675 16.0059 12.0059C16.0059 14.215 14.2151 16.0059 12.0059 16.0059Z"/>
<path d="M19.8507 5.59627C19.8507 6.39152 19.206 7.03625 18.4107 7.03625C17.6154 7.03625 16.9707 6.39152 16.9707 5.59627C16.9707 4.80098 17.6154 4.15625 18.4107 4.15625C19.206 4.15625 19.8507 4.80098 19.8507 5.59627Z"/>
</svg>
